num845: Hello World!
num846: Hello World!
num847: Hello World!
num848: Hello World!
num849: Hello World!
num850: Hello World!
num851: Hello World!
num852: Hello World!
num853: Hello World!
num854: Hello World!
num855: Hello World!
num856: Hello World!
num857: Hello World!
num858: Hello World!
num859: Hello World!
num860: Hello World!
num861: Hello World!
num862: Hello World!
num863: Hello World!
num864: Hello World!
num865: Hello World!
num866: Hello World!
num867: Hello World!
num868: Hello World!
num869: Hello World!
num870: Hello World!
num871: Hello World!
num872: Hello World!
num873: Hello World!
num874: Hello World!
num875: Hello World!
num876: Hello World!
num877: Hello World!
num878: Hello World!
num879: Hello World!
num880: Hello World!
num881: Hello World!
num882: Hello World!
num883: Hello World!
num884: Hello World!
num885: Hello World!
num886: Hello World!
num887: Hello World!
num888: Hello World!
num889: Hello World!
num890: Hello World!
num891: Hello World!
num892: Hello World!
num893: Hello World!
num894: Hello World!
num895: Hello World!
num896: Hello World!
num897: Hello World!
num898: Hello World!
num899: Hello World!
num900: Hello World!
num901: Hello World!
num902: Hello World!
num903: Hello World!
num904: Hello World!
num905: Hello World!
num906: Hello World!
num907: Hello World!
num908: Hello World!
num909: Hello World!
num910: Hello World!
num911: Hello World!
num912: Hello World!
num913: Hello World!
num914: Hello World!
num915: Hello World!
num916: Hello World!
num917: Hello World!
num918: Hello World!
num919: Hello World!
num920: Hello World!
num921: Hello World!
num922: Hello World!
num923: Hello World!
num924: Hello World!
num925: Hello World!
num926: Hello World!
num927: Hello World!
num928: Hello World!
num929: Hello World!
num930: Hello World!
num931: Hello World!
num932: Hello World!
num933: Hello World!
num934: Hello World!
