num665: Hello World!
num666: Hello World!
num667: Hello World!
num668: Hello World!
num669: Hello World!
num670: Hello World!
num671: Hello World!
num672: Hello World!
num673: Hello World!
num674: Hello World!
num675: Hello World!
num676: Hello World!
num677: Hello World!
num678: Hello World!
num679: Hello World!
num680: Hello World!
num681: Hello World!
num682: Hello World!
num683: Hello World!
num684: Hello World!
num685: Hello World!
num686: Hello World!
num687: Hello World!
num688: Hello World!
num689: Hello World!
num690: Hello World!
num691: Hello World!
num692: Hello World!
num693: Hello World!
num694: Hello World!
num695: Hello World!
num696: Hello World!
num697: Hello World!
num698: Hello World!
num699: Hello World!
num700: Hello World!
num701: Hello World!
num702: Hello World!
num703: Hello World!
num704: Hello World!
num705: Hello World!
num706: Hello World!
num707: Hello World!
num708: Hello World!
num709: Hello World!
num710: Hello World!
num711: Hello World!
num712: Hello World!
num713: Hello World!
num714: Hello World!
num715: Hello World!
num716: Hello World!
num717: Hello World!
num718: Hello World!
num719: Hello World!
num720: Hello World!
num721: Hello World!
num722: Hello World!
num723: Hello World!
num724: Hello World!
num725: Hello World!
num726: Hello World!
num727: Hello World!
num728: Hello World!
num729: Hello World!
num730: Hello World!
num731: Hello World!
num732: Hello World!
num733: Hello World!
num734: Hello World!
num735: Hello World!
num736: Hello World!
num737: Hello World!
num738: Hello World!
num739: Hello World!
num740: Hello World!
num741: Hello World!
num742: Hello World!
num743: Hello World!
num744: Hello World!
num745: Hello World!
num746: Hello World!
num747: Hello World!
num748: Hello World!
num749: Hello World!
num750: Hello World!
num751: Hello World!
num752: Hello World!
num753: Hello World!
num754: Hello World!
