num755: Hello World!
num756: Hello World!
num757: Hello World!
num758: Hello World!
num759: Hello World!
num760: Hello World!
num761: Hello World!
num762: Hello World!
num763: Hello World!
num764: Hello World!
num765: Hello World!
num766: Hello World!
num767: Hello World!
num768: Hello World!
num769: Hello World!
num770: Hello World!
num771: Hello World!
num772: Hello World!
num773: Hello World!
num774: Hello World!
num775: Hello World!
num776: Hello World!
num777: Hello World!
num778: Hello World!
num779: Hello World!
num780: Hello World!
num781: Hello World!
num782: Hello World!
num783: Hello World!
num784: Hello World!
num785: Hello World!
num786: Hello World!
num787: Hello World!
num788: Hello World!
num789: Hello World!
num790: Hello World!
num791: Hello World!
num792: Hello World!
num793: Hello World!
num794: Hello World!
num795: Hello World!
num796: Hello World!
num797: Hello World!
num798: Hello World!
num799: Hello World!
num800: Hello World!
num801: Hello World!
num802: Hello World!
num803: Hello World!
num804: Hello World!
num805: Hello World!
num806: Hello World!
num807: Hello World!
num808: Hello World!
num809: Hello World!
num810: Hello World!
num811: Hello World!
num812: Hello World!
num813: Hello World!
num814: Hello World!
num815: Hello World!
num816: Hello World!
num817: Hello World!
num818: Hello World!
num819: Hello World!
num820: Hello World!
num821: Hello World!
num822: Hello World!
num823: Hello World!
num824: Hello World!
num825: Hello World!
num826: Hello World!
num827: Hello World!
num828: Hello World!
num829: Hello World!
num830: Hello World!
num831: Hello World!
num832: Hello World!
num833: Hello World!
num834: Hello World!
num835: Hello World!
num836: Hello World!
num837: Hello World!
num838: Hello World!
num839: Hello World!
num840: Hello World!
num841: Hello World!
num842: Hello World!
num843: Hello World!
num844: Hello World!
